% Generated by IEEEtran.bst, version: 1.13 (2008/09/30)
\begin{thebibliography}{10}
\providecommand{\url}[1]{#1}
\csname url@samestyle\endcsname
\providecommand{\newblock}{\relax}
\providecommand{\bibinfo}[2]{#2}
\providecommand{\BIBentrySTDinterwordspacing}{\spaceskip=0pt\relax}
\providecommand{\BIBentryALTinterwordstretchfactor}{4}
\providecommand{\BIBentryALTinterwordspacing}{\spaceskip=\fontdimen2\font plus
\BIBentryALTinterwordstretchfactor\fontdimen3\font minus
  \fontdimen4\font\relax}
\providecommand{\BIBforeignlanguage}[2]{{%
\expandafter\ifx\csname l@#1\endcsname\relax
\typeout{** WARNING: IEEEtran.bst: No hyphenation pattern has been}%
\typeout{** loaded for the language `#1'. Using the pattern for}%
\typeout{** the default language instead.}%
\else
\language=\csname l@#1\endcsname
\fi
#2}}
\providecommand{\BIBdecl}{\relax}
\BIBdecl

\bibitem{Benkler06}
Y.~Benkler, \emph{{The Wealth of Networks: How Social Production Transforms
  Markets And Freedom}}.\hskip 1em plus 0.5em minus 0.4em\relax Yale University
  Press, 2006.

\bibitem{Wasserman2007}
A.~Wasserman and E.~Capra, ``{Evaluating Software Engineering Processes in
  Commercial and Community Open Source Projects},'' in \emph{{Workshop Emerging
  Trends in FLOSS Research and Development}}, 2007.

\bibitem{Riehle2007}
D.~Riehle, ``{The Economic Motivation of Open Source Software: Stakeholder
  Perspectives},'' \emph{IEEE Computer}, vol.~40, no.~4, pp. 25--32, 2007.

\bibitem{Forrester-Consulting2008}
Forrester-Consulting, ``{Open Source Paves the Way for the Next Generation of
  Enterprise IT},'' Forrester Research, Tech. Rep., 2008.

\bibitem{Michlmayr2005}
M.~Michlmayr, F.~Hunt, and D.~Probert, ``{Quality Practices and Problems in
  Free Software Projects},'' in \emph{{First International Conference on Open
  Source Systems}}, M.~Scotto and G.~Succi, Eds., Genova, Italy, 2005, pp.
  309--310.

\bibitem{Stewart2006}
K.~J. Stewart and S.~Gosain, ``{The Impact of Ideology on Effectiveness in Open
  Source Software Development Teams},'' \emph{MIS Quarterly}, vol.~30, no.~2,
  pp. 291--314, June 2006.

\bibitem{CatedralBazzar}
E.~S. Raymond, \emph{{The Cathedral \& the Bazaar}}, T.~O'Reilly, Ed.\hskip 1em
  plus 0.5em minus 0.4em\relax Sebastopol, CA, USA: O'Reilly \& Associates,
  Inc., 1999.

\bibitem{Santos2010}
C.~Santos~Jr., J.~Pearson, and F.~Kon, ``{Attractiveness of Free and Open
  Source Software Projects.}'' in \emph{{Proceedings of the 18th European
  Conference on Information Systems (ECIS)}}, Pretoria, South Africa, 2010,
  (forthcoming).

\bibitem{SEI88}
E.~E. Mills, ``{Software Metrics},'' Software Engineering Institute, SEI -
  Carnegie Mellon University, Tech. Rep., 1988.

\bibitem{Tempero}
E.~Tempero, ``{On Measuring Java Software},'' in \emph{{ACSC '08: Proceedings
  of the Thirty-First Australasian Conference On Computer Science}},
  vol.~74.\hskip 1em plus 0.5em minus 0.4em\relax Darlinghurst, Australia,
  Australia: Australian Computer Society, Inc., 2008, pp. 7--7.

\bibitem{Jones91}
T.~C. Jones, \emph{{Applied Software Measurement: Assuring Productivity and
  Quality}}.\hskip 1em plus 0.5em minus 0.4em\relax New York: McGraw-Hill,
  1991.

\bibitem{Lorenz94}
M.~Lorenz and J.~Kidd, \emph{{Object-Oriented Software Metrics}}.\hskip 1em
  plus 0.5em minus 0.4em\relax Prentice Hall, 1994.

\bibitem{beck97}
K.~Beck, \emph{Smalltalk: best practice patterns}.\hskip 1em plus 0.5em minus
  0.4em\relax Upper Saddle River, NJ, USA: Prentice-Hall, Inc., 1997.

\bibitem{Bansiya97}
J.~Bansiya and C.~Davi, ``{Automated Metrics and Object-Oriented Development:
  Using {QMOOD++} for Object-Oriented Metrics},'' \emph{Dr. Dobb's Journal},
  vol.~22, no.~12, pp. 42, 44--48, December 1997.

\bibitem{Chidamber94}
S.~R. Chidamber and C.~F. Kemerer, ``{A Metrics Suite for Object-Oriented
  Design},'' \emph{IEEE Transactions on Software Engineering}, vol.~20, no.~6,
  pp. 476--493, 1994.

\bibitem{LCOM4}
M.~Hitz and B.~Montazeri, ``{Measuring Coupling and Cohesion in Object-Oriented
  Systems},'' in \emph{{Proceedings of International Symposium on Applied
  Corporate Computing}}, 1995.

\bibitem{darcy2005}
D.~P. Darcy, C.~F. Kemerer, S.~A. Slaughter, and J.~E. Tomayko, ``{{The
  Structural Complexity of Software: An Experimental Test}},'' \emph{{Software
  Engineering, IEEE Transactions on}}, vol.~{31}, no.~{11}, pp. 982--995,
  {Nov.} {2005}.

\bibitem{richter99}
C.~Richter, \emph{Designing Flexible Object-Oriented Systems with UML}.\hskip
  1em plus 0.5em minus 0.4em\relax Thousand Oaks, CA, USA: New Riders
  Publishing, 1999.

\bibitem{johnson2002}
J.~P. Johnson, ``Open source software: Private provision of a public good,''
  \emph{Journal of Economics and Management Strategy}, vol.~11, no.~4, pp.
  637--662, 2002.

\bibitem{Crowston2002}
K.~Crowston and B.~Scozzi, ``{Open Source Software Projects as Virtual
  Organizations: Competency Rallying for Software Development},'' in \emph{{IEE
  Proceedings Software}}, vol. 149, no.~1, 2002, pp. 3--17.

\bibitem{raja2006}
U.~Raja and M.~J. Tretter, ``Investigating open source project success: A data
  mining approach to model formulation, validation and testing,'' Working
  Paper, Texas A\&M University, College Station, Texas, Tech. Rep.
  Paper-071-31, 2006.

\bibitem{shaikh2003}
M.~Shaikh and T.~Cornford, ``Version management tools: Cvs to bk in the linux
  kernel,'' \emph{Long Range Planning}, vol.~34, pp. 699--725, 2003.

\bibitem{mockus2000}
A.~Mockus, R.~T. Fielding, and J.~Herbsleb, ``A case study of open source
  software development: the apache server,'' in \emph{ICSE '00: Proceedings of
  the 22nd international conference on Software engineering}.\hskip 1em plus
  0.5em minus 0.4em\relax New York, NY, USA: ACM, 2000, pp. 263--272.

\bibitem{balijepally2009}
\BIBentryALTinterwordspacing
V.~Balijepally, R.~K. Mahapatra, S.~P. Nerur, and K.~Price, ``Are two heads
  better than one for software development? the productivity paradox of pair
  programming,'' \emph{MIS Quarterly}, vol.~33, no.~1, pp. 91--118, 2009.
  [Online]. Available: \url{http://aisel.aisnet.org/misq/vol33/iss1/7/}
\BIBentrySTDinterwordspacing

\bibitem{crowston2006}
K.~Crowston, , and J.~Howison, ``Hierarchy and centralization in free and open
  source software team communications,'' \emph{Knowledge Technology \& Policy},
  vol.~18, pp. 65--85, 2006.

\bibitem{hassan05}
A.~E. Hassan, Z.~M. Jiang, and R.~C. Holt, ``Source versus object code
  extraction for recovering software architecture,'' \emph{Reverse Engineering,
  Working Conference on}, vol.~0, pp. 67--76, 2005.

\bibitem{robles2006:mining-large}
G.~Robles, J.~M. Gonzalez-Barahona, M.~Michlmayr, and J.~J. Amor, ``{Mining
  Large Software Compilations over Time: Another Perspective of Software
  Evolution},'' in \emph{{Proceedings of the International Workshop on Mining
  Software Repositories (MSR 2006)}}, {Shanghai, China}, {2006}.

\bibitem{terceiro2009}
A.~Terceiro and C.~Chavez, ``{Structural Complexity Evolution in Free Software
  Projects: A Case Study},'' in \emph{{QACOS-OSSPL 2009: Proceedings of the
  Joint Workshop on Quality and Architectural Concerns in Open Source Software
  (QACOS) and Open Source Software and Product Lines (OSSPL)}}, M.~Ali~Babar,
  B.~Lundell, and F.~van~der Linden, Eds., {2009}.

\bibitem{hair2006}
J.~F. Hair, W.~C. Black, B.~J. Babin, R.~E. Anderson, and R.~L. Tatham,
  \emph{Multivariate data analysis}, 6th~ed.\hskip 1em plus 0.5em minus
  0.4em\relax Upper Saddle River, NJ: Pearson Education In, 2006.

\bibitem{Barkmann2009}
H.~Barkmann, R.~Lincke, and W.~L{\"o}we, ``{Quantitative Evaluation of Software
  Quality Metrics in Open-Source Projects},'' in \emph{{AINA Workshops}}, 2009,
  pp. 1067--1072.

\bibitem{Stamelos2002}
I.~Stamelos, L.~Angelis, A.~Oikonomou, and G.~L. Bleris, ``{Code Quality
  Analysis in Open Source Software Development},'' \emph{Information Systems
  Journal}, vol.~12, pp. 43--60, 2002.

\bibitem{midha2008}
V.~Midha, ``{Does Complexity Matter? The Impact of Change in Structural
  Complexity On Software Maintenance and New Developers' Contributions in Open
  Source Software},'' in \emph{{{ICIS 2008 Proceedings}}}, {2008}.

\bibitem{capra2008}
E.~Capra, C.~Francalanci, and F.~Merlo, ``{An Empirical Study on the
  Relationship Between Software Design Quality, Development Effort and
  Governance in Open Source Projects},'' \emph{{IEEE Transactions on Software
  Engineering}}, vol.~{34}, no.~{6}, pp. 765--782, {Nov.-Dec. } {2008}.

\bibitem{bargallo2008}
\BIBentryALTinterwordspacing
D.~Barbagallo, C.~Francalenei, and F.~Merlo, ``{{The Impact of Social
  Networking on Software Design Quality and Development Effort in Open Source
  Projects}},'' in \emph{{{ICIS 2008 Proceedings}}}, {2008}. [Online].
  Available: \url{{http://aisel.aisnet.org/icis2008/201 }}
\BIBentrySTDinterwordspacing

\bibitem{Stol2009}
K.-J. Stol, M.~A. Babar, B.~Russo, and B.~Fitzgerald, ``{The Use of Empirical
  Methods in Open Source Software Research: Facts, Trends and Future
  Directions},'' in \emph{{FLOSS'09: Proceedings of the 2009 ICSE Workshop on
  Emerging Trends in Free/Libre/Open Source Software Research and
  Development}}.\hskip 1em plus 0.5em minus 0.4em\relax Washington, DC, USA:
  IEEE Computer Society, 2009, pp. 19--24.

\end{thebibliography}
