\relax 
\citation{Benkler06}
\citation{Wasserman2007}
\citation{Riehle2007}
\citation{Forrester-Consulting2008}
\citation{Michlmayr2005}
\citation{Stewart2006}
\citation{Michlmayr2005}
\citation{CatedralBazzar}
\citation{Santos2010}
\citation{SEI88}
\citation{Tempero}
\citation{Michlmayr2005}
\@writefile{toc}{\contentsline {section}{\numberline {I}Introduction}{1}}
\newlabel{introduction}{{I}{1}}
\citation{Jones91}
\citation{Tempero}
\citation{Lorenz94}
\citation{beck97}
\citation{Bansiya97}
\citation{beck97}
\citation{beck97}
\citation{Chidamber94}
\citation{LCOM4}
\citation{Chidamber94}
\citation{darcy2005}
\citation{richter99}
\citation{darcy2005}
\citation{darcy2005}
\citation{Santos2010}
\citation{Santos2010}
\@writefile{toc}{\contentsline {section}{\numberline {II}Theoretical Background}{2}}
\newlabel{background}{{II}{2}}
\@writefile{toc}{\contentsline {subsection}{\numberline {\unhbox \voidb@x \hbox {II-A}}Source code metrics}{2}}
\newlabel{scm}{{\unhbox \voidb@x \hbox {II-A}}{2}}
\citation{Santos2010}
\citation{Santos2010}
\citation{Santos2010}
\citation{johnson2002}
\citation{Santos2010}
\citation{Crowston2002}
\citation{johnson2002}
\citation{Santos2010}
\citation{raja2006}
\citation{Stewart2006}
\@writefile{lof}{\contentsline {figure}{\numberline {1}{\ignorespaces Attractiveness research model -- adapted from Santos Jr. et al\nobreakspace  {}\cite  {Santos2010}.}}{3}}
\newlabel{attractiveness}{{1}{3}}
\@writefile{toc}{\contentsline {subsection}{\numberline {\unhbox \voidb@x \hbox {II-B}}Attractiveness}{3}}
\newlabel{attract}{{\unhbox \voidb@x \hbox {II-B}}{3}}
\citation{shaikh2003}
\citation{mockus2000}
\citation{Stewart2006}
\citation{raja2006}
\citation{Crowston2002}
\citation{balijepally2009}
\citation{crowston2006}
\citation{Santos2010}
\citation{hassan05}
\citation{robles2006:mining-large}
\citation{terceiro2009}
\@writefile{toc}{\contentsline {section}{\numberline {III}Research Design}{4}}
\newlabel{researchDesign}{{III}{4}}
\@writefile{toc}{\contentsline {subsection}{\numberline {\unhbox \voidb@x \hbox {III-A}}The Analizo Tool}{4}}
\newlabel{analizo}{{\unhbox \voidb@x \hbox {III-A}}{4}}
\@writefile{toc}{\contentsline {subsection}{\numberline {\unhbox \voidb@x \hbox {III-B}}Sample and Data Collection}{4}}
\newlabel{sdcollection}{{\unhbox \voidb@x \hbox {III-B}}{4}}
\citation{hair2006}
\citation{Crowston2002}
\citation{hair2006}
\@writefile{lot}{\contentsline {table}{\numberline {I}{\ignorespaces Descriptive statistics}}{5}}
\newlabel{table:statistics}{{I}{5}}
\@writefile{toc}{\contentsline {subsection}{\numberline {\unhbox \voidb@x \hbox {III-C}}Variables}{5}}
\newlabel{variables}{{\unhbox \voidb@x \hbox {III-C}}{5}}
\@writefile{lot}{\contentsline {table}{\numberline {II}{\ignorespaces Parametric Correlations: Pearson}}{6}}
\newlabel{pearson}{{II}{6}}
\@writefile{lot}{\contentsline {table}{\numberline {III}{\ignorespaces Non-Parametric Correlations: Spearman}}{6}}
\newlabel{spearman}{{III}{6}}
\@writefile{lot}{\contentsline {table}{\numberline {IV}{\ignorespaces Non-Parametric Correlations: Kendall}}{6}}
\newlabel{kendall}{{IV}{6}}
\@writefile{toc}{\contentsline {subsection}{\numberline {\unhbox \voidb@x \hbox {III-D}}Research Hypotheses}{7}}
\newlabel{hypotheses}{{\unhbox \voidb@x \hbox {III-D}}{7}}
\@writefile{toc}{\contentsline {section}{\numberline {IV}Hypotheses Testing}{7}}
\newlabel{hypothesesTesting}{{IV}{7}}
\@writefile{toc}{\contentsline {subsection}{\numberline {\unhbox \voidb@x \hbox {IV-A}}Hypothesis 1}{7}}
\citation{Michlmayr2005}
\citation{Michlmayr2005}
\citation{Barkmann2009}
\citation{Stamelos2002}
\@writefile{lot}{\contentsline {table}{\numberline {V}{\ignorespaces Equations and Pearson Correlations}}{8}}
\newlabel{table:regression}{{V}{8}}
\@writefile{toc}{\contentsline {subsection}{\numberline {\unhbox \voidb@x \hbox {IV-B}}Hypothesis 2}{8}}
\@writefile{toc}{\contentsline {subsection}{\numberline {\unhbox \voidb@x \hbox {IV-C}}Hypothesis 3}{8}}
\@writefile{toc}{\contentsline {section}{\numberline {V}Related Work}{8}}
\newlabel{related}{{V}{8}}
\citation{midha2008}
\citation{capra2008}
\citation{capra2008}
\citation{bargallo2008}
\citation{Stol2009}
\@writefile{toc}{\contentsline {section}{\numberline {VI}Conclusion}{9}}
\newlabel{conclusion}{{VI}{9}}
\citation{Santos2010}
\bibstyle{IEEEtran}
\bibdata{myReferences}
\bibcite{Benkler06}{1}
\bibcite{Wasserman2007}{2}
\bibcite{Riehle2007}{3}
\bibcite{Forrester-Consulting2008}{4}
\bibcite{Michlmayr2005}{5}
\bibcite{Stewart2006}{6}
\bibcite{CatedralBazzar}{7}
\bibcite{Santos2010}{8}
\bibcite{SEI88}{9}
\bibcite{Tempero}{10}
\bibcite{Jones91}{11}
\bibcite{Lorenz94}{12}
\bibcite{beck97}{13}
\bibcite{Bansiya97}{14}
\bibcite{Chidamber94}{15}
\bibcite{LCOM4}{16}
\bibcite{darcy2005}{17}
\bibcite{richter99}{18}
\bibcite{johnson2002}{19}
\bibcite{Crowston2002}{20}
\bibcite{raja2006}{21}
\bibcite{shaikh2003}{22}
\bibcite{mockus2000}{23}
\bibcite{balijepally2009}{24}
\bibcite{crowston2006}{25}
\bibcite{hassan05}{26}
\bibcite{robles2006:mining-large}{27}
\bibcite{terceiro2009}{28}
\bibcite{hair2006}{29}
\bibcite{Barkmann2009}{30}
\bibcite{Stamelos2002}{31}
\bibcite{midha2008}{32}
\bibcite{capra2008}{33}
\bibcite{bargallo2008}{34}
\bibcite{Stol2009}{35}
\@writefile{toc}{\contentsline {section}{References}{10}}
